module google.golang.org/api/internal/kokoro/discogen

go 1.19

require (
	github.com/google/go-github/v52 v52.0.0
	github.com/google/go-github/v57 v57.0.0
	golang.org/x/oauth2 v0.15.0
)

require (
	github.com/ProtonMail/go-crypto v0.0.0-20230217124315-7d5c6f04bbb8 // indirect
	github.com/cloudflare/circl v1.3.3 // indirect
	github.com/golang/protobuf v1.5.3 // indirect
	github.com/google/go-querystring v1.1.0 // indirect
	golang.org/x/crypto v0.16.0 // indirect
	golang.org/x/net v0.19.0 // indirect
	golang.org/x/sys v0.15.0 // indirect
	google.golang.org/appengine v1.6.7 // indirect
	google.golang.org/protobuf v1.31.0 // indirect
)
