module google.golang.org/api

go 1.19

require (
	cloud.google.com/go/compute/metadata v0.2.3
	github.com/google/go-cmp v0.6.0
	github.com/google/s2a-go v0.1.7
	github.com/google/uuid v1.4.0
	github.com/googleapis/enterprise-certificate-proxy v0.3.2
	github.com/googleapis/gax-go/v2 v2.12.0
	go.opencensus.io v0.24.0
	go.opentelemetry.io/contrib/instrumentation/google.golang.org/grpc/otelgrpc v0.46.1
	go.opentelemetry.io/contrib/instrumentation/net/http/otelhttp v0.46.1
	golang.org/x/net v0.19.0
	golang.org/x/oauth2 v0.15.0
	golang.org/x/sync v0.5.0
	golang.org/x/time v0.5.0
	google.golang.org/genproto/googleapis/bytestream v0.0.0-20231127180814-3a041ad873d4
	google.golang.org/genproto/googleapis/rpc v0.0.0-20231127180814-3a041ad873d4
	google.golang.org/grpc v1.59.0
	google.golang.org/protobuf v1.31.0
)

require (
	cloud.google.com/go/compute v1.23.3 // indirect
	github.com/felixge/httpsnoop v1.0.4 // indirect
	github.com/go-logr/logr v1.3.0 // indirect
	github.com/go-logr/stdr v1.2.2 // indirect
	github.com/golang/groupcache v0.0.0-20210331224755-41bb18bfe9da // indirect
	github.com/golang/protobuf v1.5.3 // indirect
	go.opentelemetry.io/otel v1.21.0 // indirect
	go.opentelemetry.io/otel/metric v1.21.0 // indirect
	go.opentelemetry.io/otel/trace v1.21.0 // indirect
	golang.org/x/crypto v0.16.0 // indirect
	golang.org/x/sys v0.15.0 // indirect
	golang.org/x/text v0.14.0 // indirect
	google.golang.org/appengine v1.6.7 // indirect
	google.golang.org/genproto v0.0.0-20231120223509-83a465c0220f // indirect
	google.golang.org/genproto/googleapis/api v0.0.0-20231120223509-83a465c0220f // indirect
)
